00200010 R __STAB_BEGIN__
00202ac4 R __STAB_END__
00202ac5 R __STABSTR_BEGIN__
00204282 R __STABSTR_END__
00800020 T _start
00800031 t args_exist
00800038 T _main
008000b3 T libmain
008000ec T exit
00800102 T sleep
00800110 t putch
00800170 T vcprintf
008001cb T cprintf
008001f1 t printnum
008002aa t getuint
00800311 t getint
00800370 T vprintfmt
00800748 T printfmt
0080076f t sprintputch
008007a5 T vsnprintf
008007fb T snprintf
00800827 T strlen
0080084d T strnlen
0080087d T strcpy
008008ad T strncpy
008008f2 T strlcpy
00800943 T strcmp
00800982 T strncmp
008009d8 T strchr
00800a0b T strfind
00800a3a T memset
00800a6b T memcpy
00800aa8 T memmove
00800b28 T memcmp
00800b80 T memfind
00800bba T strtol
00800d17 T strsplit
00800df1 t syscall
00800e1c T sys_cputs
00800e39 T sys_cgetc
00800e52 T sys_env_destroy
00800e6d T sys_getenvid
00800e86 T sys_env_sleep
00800ea0 T sys_allocate_page
00800ebd T sys_get_page
00800eda T sys_map_frame
00800f04 T sys_unmap_frame
00800f21 T sys_calculate_required_frames
00800f3c T sys_calculate_free_frames
00800f55 T sys_freeMem
00800f80 T __udivdi3
008010b0 T __umoddi3
008012c0 r error_string
00802000 D binaryname
00802004 B env
eec00000 A envs
ef000000 A frames_info
ef400000 A vpt
ef7bd000 A vpd
